simulation/qsim/clk_div.msim.vcd
$comment
	File created using the following command:
		vcd file clk_div.msim.vcd -direction
$end
$date
	Tue Sep 12 15:24:27 2023
$end
$version
	ModelSim Version 10.1d
$end
$timescale
	1ps
$end
$scope module clk_div_vlg_vec_tst $end
$var reg 1 ! clk $end
$var wire 1 " clk_6M $end
$var wire 1 # clk_12M $end
$var wire 1 $ clk_out $end
$var wire 1 % sampler $end
$scope module i1 $end
$var wire 1 & gnd $end
$var wire 1 ' vcc $end
$var wire 1 ( unknown $end
$var tri1 1 ) devclrn $end
$var tri1 1 * devpor $end
$var tri1 1 + devoe $end
$var wire 1 , clk_out~output_o $end
$var wire 1 - clk_12M~output_o $end
$var wire 1 . clk_6M~output_o $end
$var wire 1 / clk~input_o $end
$var wire 1 0 clk~inputclkctrl_outclk $end
$var wire 1 1 q[0]~2_combout $end
$var wire 1 2 q[1]~0_combout $end
$var wire 1 3 q[2]~1_combout $end
$var wire 1 4 q [3] $end
$var wire 1 5 q [2] $end
$var wire 1 6 q [1] $end
$var wire 1 7 q [0] $end
$upscope $end
$upscope $end
$enddefinitions $end
#0
$dumpvars
0!
0"
0#
0$
x%
0&
1'
x(
1)
1*
1+
0,
0-
0.
0/
00
11
02
03
07
06
05
z4
$end
#5000
1!
1/
10
0%
17
12
01
1,
1$
#10000
0!
0/
00
1%
#15000
1!
1/
10
0%
16
07
11
1-
0,
1#
0$
#20000
0!
0/
00
1%
#25000
1!
1/
10
0%
17
13
02
01
1,
1$
#30000
0!
0/
00
1%
#35000
1!
1/
10
0%
15
06
07
11
1.
0-
0,
1"
0#
0$
#40000
0!
0/
00
1%
#45000
1!
1/
10
0%
17
12
01
1,
1$
#50000
0!
0/
00
1%
#55000
1!
1/
10
0%
16
07
11
1-
0,
1#
0$
#60000
0!
0/
00
1%
#65000
1!
1/
10
0%
17
03
02
01
1,
1$
#70000
0!
0/
00
1%
#75000
1!
1/
10
0%
05
06
07
11
0.
0-
0,
0"
0#
0$
#80000
0!
0/
00
1%
#85000
1!
1/
10
0%
17
12
01
1,
1$
#90000
0!
0/
00
1%
#95000
1!
1/
10
0%
16
07
11
1-
0,
1#
0$
#100000
0!
0/
00
1%
#105000
1!
1/
10
0%
17
13
02
01
1,
1$
#110000
0!
0/
00
1%
#115000
1!
1/
10
0%
15
06
07
11
1.
0-
0,
1"
0#
0$
#120000
0!
0/
00
1%
#125000
1!
1/
10
0%
17
12
01
1,
1$
#130000
0!
0/
00
1%
#135000
1!
1/
10
0%
16
07
11
1-
0,
1#
0$
#140000
0!
0/
00
1%
#145000
1!
1/
10
0%
17
03
02
01
1,
1$
#150000
0!
0/
00
1%
#155000
1!
1/
10
0%
05
06
07
11
0.
0-
0,
0"
0#
0$
#160000
0!
0/
00
1%
#165000
1!
1/
10
0%
17
12
01
1,
1$
#170000
0!
0/
00
1%
#175000
1!
1/
10
0%
16
07
11
1-
0,
1#
0$
#180000
0!
0/
00
1%
#185000
1!
1/
10
0%
17
13
02
01
1,
1$
#190000
0!
0/
00
1%
#195000
1!
1/
10
0%
15
06
07
11
1.
0-
0,
1"
0#
0$
#200000
0!
0/
00
1%
#205000
1!
1/
10
0%
17
12
01
1,
1$
#210000
0!
0/
00
1%
#215000
1!
1/
10
0%
16
07
11
1-
0,
1#
0$
#220000
0!
0/
00
1%
#225000
1!
1/
10
0%
17
03
02
01
1,
1$
#230000
0!
0/
00
1%
#235000
1!
1/
10
0%
05
06
07
11
0.
0-
0,
0"
0#
0$
#240000
0!
0/
00
1%
#245000
1!
1/
10
0%
17
12
01
1,
1$
#250000
0!
0/
00
1%
#255000
1!
1/
10
0%
16
07
11
1-
0,
1#
0$
#260000
0!
0/
00
1%
#265000
1!
1/
10
0%
17
13
02
01
1,
1$
#270000
0!
0/
00
1%
#275000
1!
1/
10
0%
15
06
07
11
1.
0-
0,
1"
0#
0$
#280000
0!
0/
00
1%
#285000
1!
1/
10
0%
17
12
01
1,
1$
#290000
0!
0/
00
1%
#295000
1!
1/
10
0%
16
07
11
1-
0,
1#
0$
#300000
0!
0/
00
1%
#305000
1!
1/
10
0%
17
03
02
01
1,
1$
#310000
0!
0/
00
1%
#315000
1!
1/
10
0%
05
06
07
11
0.
0-
0,
0"
0#
0$
#320000
0!
0/
00
1%
#325000
1!
1/
10
0%
17
12
01
1,
1$
#330000
0!
0/
00
1%
#335000
1!
1/
10
0%
16
07
11
1-
0,
1#
0$
#340000
0!
0/
00
1%
#345000
1!
1/
10
0%
17
13
02
01
1,
1$
#350000
0!
0/
00
1%
#355000
1!
1/
10
0%
15
06
07
11
1.
0-
0,
1"
0#
0$
#360000
0!
0/
00
1%
#365000
1!
1/
10
0%
17
12
01
1,
1$
#370000
0!
0/
00
1%
#375000
1!
1/
10
0%
16
07
11
1-
0,
1#
0$
#380000
0!
0/
00
1%
#385000
1!
1/
10
0%
17
03
02
01
1,
1$
#390000
0!
0/
00
1%
#395000
1!
1/
10
0%
05
06
07
11
0.
0-
0,
0"
0#
0$
#400000
0!
0/
00
1%
#405000
1!
1/
10
0%
17
12
01
1,
1$
#410000
0!
0/
00
1%
#415000
1!
1/
10
0%
16
07
11
1-
0,
1#
0$
#420000
0!
0/
00
1%
#425000
1!
1/
10
0%
17
13
02
01
1,
1$
#430000
0!
0/
00
1%
#435000
1!
1/
10
0%
15
06
07
11
1.
0-
0,
1"
0#
0$
#440000
0!
0/
00
1%
#445000
1!
1/
10
0%
17
12
01
1,
1$
#450000
0!
0/
00
1%
#455000
1!
1/
10
0%
16
07
11
1-
0,
1#
0$
#460000
0!
0/
00
1%
#465000
1!
1/
10
0%
17
03
02
01
1,
1$
#470000
0!
0/
00
1%
#475000
1!
1/
10
0%
05
06
07
11
0.
0-
0,
0"
0#
0$
#480000
0!
0/
00
1%
#485000
1!
1/
10
0%
17
12
01
1,
1$
#490000
0!
0/
00
1%
#495000
1!
1/
10
0%
16
07
11
1-
0,
1#
0$
#500000
0!
0/
00
1%
#505000
1!
1/
10
0%
17
13
02
01
1,
1$
#510000
0!
0/
00
1%
#515000
1!
1/
10
0%
15
06
07
11
1.
0-
0,
1"
0#
0$
#520000
0!
0/
00
1%
#525000
1!
1/
10
0%
17
12
01
1,
1$
#530000
0!
0/
00
1%
#535000
1!
1/
10
0%
16
07
11
1-
0,
1#
0$
#540000
0!
0/
00
1%
#545000
1!
1/
10
0%
17
03
02
01
1,
1$
#550000
0!
0/
00
1%
#555000
1!
1/
10
0%
05
06
07
11
0.
0-
0,
0"
0#
0$
#560000
0!
0/
00
1%
#565000
1!
1/
10
0%
17
12
01
1,
1$
#570000
0!
0/
00
1%
#575000
1!
1/
10
0%
16
07
11
1-
0,
1#
0$
#580000
0!
0/
00
1%
#585000
1!
1/
10
0%
17
13
02
01
1,
1$
#590000
0!
0/
00
1%
#595000
1!
1/
10
0%
15
06
07
11
1.
0-
0,
1"
0#
0$
#600000
0!
0/
00
1%
#605000
1!
1/
10
0%
17
12
01
1,
1$
#610000
0!
0/
00
1%
#615000
1!
1/
10
0%
16
07
11
1-
0,
1#
0$
#620000
0!
0/
00
1%
#625000
1!
1/
10
0%
17
03
02
01
1,
1$
#630000
0!
0/
00
1%
#635000
1!
1/
10
0%
05
06
07
11
0.
0-
0,
0"
0#
0$
#640000
0!
0/
00
1%
#645000
1!
1/
10
0%
17
12
01
1,
1$
#650000
0!
0/
00
1%
#655000
1!
1/
10
0%
16
07
11
1-
0,
1#
0$
#660000
0!
0/
00
1%
#665000
1!
1/
10
0%
17
13
02
01
1,
1$
#670000
0!
0/
00
1%
#675000
1!
1/
10
0%
15
06
07
11
1.
0-
0,
1"
0#
0$
#680000
0!
0/
00
1%
#685000
1!
1/
10
0%
17
12
01
1,
1$
#690000
0!
0/
00
1%
#695000
1!
1/
10
0%
16
07
11
1-
0,
1#
0$
#700000
0!
0/
00
1%
#705000
1!
1/
10
0%
17
03
02
01
1,
1$
#710000
0!
0/
00
1%
#715000
1!
1/
10
0%
05
06
07
11
0.
0-
0,
0"
0#
0$
#720000
0!
0/
00
1%
#725000
1!
1/
10
0%
17
12
01
1,
1$
#730000
0!
0/
00
1%
#735000
1!
1/
10
0%
16
07
11
1-
0,
1#
0$
#740000
0!
0/
00
1%
#745000
1!
1/
10
0%
17
13
02
01
1,
1$
#750000
0!
0/
00
1%
#755000
1!
1/
10
0%
15
06
07
11
1.
0-
0,
1"
0#
0$
#760000
0!
0/
00
1%
#765000
1!
1/
10
0%
17
12
01
1,
1$
#770000
0!
0/
00
1%
#775000
1!
1/
10
0%
16
07
11
1-
0,
1#
0$
#780000
0!
0/
00
1%
#785000
1!
1/
10
0%
17
03
02
01
1,
1$
#790000
0!
0/
00
1%
#795000
1!
1/
10
0%
05
06
07
11
0.
0-
0,
0"
0#
0$
#800000
0!
0/
00
1%
#805000
1!
1/
10
0%
17
12
01
1,
1$
#810000
0!
0/
00
1%
#815000
1!
1/
10
0%
16
07
11
1-
0,
1#
0$
#820000
0!
0/
00
1%
#825000
1!
1/
10
0%
17
13
02
01
1,
1$
#830000
0!
0/
00
1%
#835000
1!
1/
10
0%
15
06
07
11
1.
0-
0,
1"
0#
0$
#840000
0!
0/
00
1%
#845000
1!
1/
10
0%
17
12
01
1,
1$
#850000
0!
0/
00
1%
#855000
1!
1/
10
0%
16
07
11
1-
0,
1#
0$
#860000
0!
0/
00
1%
#865000
1!
1/
10
0%
17
03
02
01
1,
1$
#870000
0!
0/
00
1%
#875000
1!
1/
10
0%
05
06
07
11
0.
0-
0,
0"
0#
0$
#880000
0!
0/
00
1%
#885000
1!
1/
10
0%
17
12
01
1,
1$
#890000
0!
0/
00
1%
#895000
1!
1/
10
0%
16
07
11
1-
0,
1#
0$
#900000
0!
0/
00
1%
#905000
1!
1/
10
0%
17
13
02
01
1,
1$
#910000
0!
0/
00
1%
#915000
1!
1/
10
0%
15
06
07
11
1.
0-
0,
1"
0#
0$
#920000
0!
0/
00
1%
#925000
1!
1/
10
0%
17
12
01
1,
1$
#930000
0!
0/
00
1%
#935000
1!
1/
10
0%
16
07
11
1-
0,
1#
0$
#940000
0!
0/
00
1%
#945000
1!
1/
10
0%
17
03
02
01
1,
1$
#950000
0!
0/
00
1%
#955000
1!
1/
10
0%
05
06
07
11
0.
0-
0,
0"
0#
0$
#960000
0!
0/
00
1%
#965000
1!
1/
10
0%
17
12
01
1,
1$
#970000
0!
0/
00
1%
#975000
1!
1/
10
0%
16
07
11
1-
0,
1#
0$
#980000
0!
0/
00
1%
#985000
1!
1/
10
0%
17
13
02
01
1,
1$
#990000
0!
0/
00
1%
#995000
1!
1/
10
0%
15
06
07
11
1.
0-
0,
1"
0#
0$
